{
  "1": {
    "id": 1,
    "age": 40,
    "firstName": "Dickerson",
    "lastName": "Macdonald"
  },
  "2": {
    "id": 2,
    "age": 21,
    "firstName": "Larsen",
    "lastName": "Shaw"
  },
  "3": {
    "id": 3,
    "age": 89,
    "firstName": "Geneva",
    "lastName": "Wilson"
  },
  "4": {
    "id": 4,
    "age": 38,
    "firstName": "Jami",
    "lastName": "Carney"
  }
}
